<svg xmlns="http://www.w3.org/2000/svg" width="23.75" height="10" viewBox="0 0 23.75 10">
  <g id="baseline-trending_flat-24px_copy" data-name="baseline-trending_flat-24px copy" transform="translate(27.5 -10) rotate(180)">
    <path id="Path" d="M-23.75,5l5-5V3.75H0v2.5H-18.75V10Z" transform="translate(3.75 -10) rotate(-180)" fill="#4d545e"/>
  </g>
</svg>
